{
  "version": "3.0.0",
  "vulnerabilities": [],
  "remediations": [],
  "scan": {
    "scanner": {
      "id": "semgrep",
      "name": "Semgrep",
      "url": "https://github.com/returntocorp/semgrep",
      "vendor": {
        "name": "GitLab"
      },
      "version": "0.39.1"
    },
    "type": "sast",
    "start_time": "2021-03-01T16:34:38",
    "end_time": "2021-03-01T16:34:39",
    "status": "success"
  }
}
